Presentation
…
## # A tibble: 10,871 x 7
##    popularity      word     n total          tf       idf      tf_idf
##         <chr>     <chr> <int> <int>       <dbl>     <dbl>       <dbl>
##  1        low venezuela  4378 55283 0.079192518 0.0000000 0.000000000
##  2        low  gobierno  2863 55283 0.051788072 0.0000000 0.000000000
##  3        low    cambio  2336 55283 0.042255305 0.0000000 0.000000000
##  4        low  transici   715 55283 0.012933452 0.0000000 0.000000000
##  5        low    maduro   433 55283 0.007832426 0.0000000 0.000000000
##  6        low         d   388 55283 0.007018432 0.0000000 0.000000000
##  7        low      tica   292 55283 0.005281913 0.4054651 0.002141631
##  8        low        pa   279 55283 0.005046759 0.0000000 0.000000000
##  9        low         q   255 55283 0.004612630 0.0000000 0.000000000
## 10        low  necesita   253 55283 0.004576452 0.0000000 0.000000000
## # ... with 10,861 more rows

## # A tibble: 10,871 x 6
##    popularity            word     n          tf      idf      tf_idf
##         <chr>           <chr> <int>       <dbl>    <dbl>       <dbl>
##  1       high      #violencia     1 0.004975124 1.098612 0.005465733
##  2       high             7am     1 0.004975124 1.098612 0.005465733
##  3       high             abr     1 0.004975124 1.098612 0.005465733
##  4       high          barbas     1 0.004975124 1.098612 0.005465733
##  5       high          champa     1 0.004975124 1.098612 0.005465733
##  6       high       confianza     1 0.004975124 1.098612 0.005465733
##  7       high     conmocionar     1 0.004975124 1.098612 0.005465733
##  8       high     conversando     1 0.004975124 1.098612 0.005465733
##  9       high deliberadamente     1 0.004975124 1.098612 0.005465733
## 10       high           delsa     1 0.004975124 1.098612 0.005465733
## # ... with 10,861 more rows
…
bing <- es_sentiments %>% 
       filter(lexicon == "bing") %>%
       select(word = palabra, sentiment)

popularity <- one_term %>%
  group_by(popularity) %>%
  mutate(total_words = n()) %>%
  ungroup() %>%
  distinct(id, popularity, total_words)
popularity

## # A tibble: 6,401 x 3
##              id popularity total_words
##           <dbl>      <chr>       <int>
##  1 8.659203e+17        low       55283
##  2 8.659203e+17        low       55283
##  3 8.659205e+17        low       55283
##  4 8.659211e+17        low       55283
##  5 8.659239e+17        low       55283
##  6 8.659251e+17        low       55283
##  7 8.659251e+17        low       55283
##  8 8.659251e+17        low       55283
##  9 8.659251e+17        low       55283
## 10 8.659289e+17        low       55283
## # ... with 6,391 more rows
…
